SELECT	PATIENT.PATIENT_ID,
	PATIENT.DEPT_ID,
	PATIENT.ROOM_ID,
	PATIENT.BED_ID,
	PATIENT.BIRTH_DT,
	PATIENT.LAST_NAME,
	PATIENT.MIDDLE_NAME,
	PATIENT.FIRST_NAME,
	PAT_RESULTS.RESULT_VALUE,
	PAT_RESULTS.LABEL_SEQ AS PATRESULTSLABELSEQ,
	PATIENT.ADMIT_DT AS ADMIT_DT,
	PATIENT.FIRST_NAME||' '||PATIENT.LAST_NAME AS FULLNAME,
	DDT.TOCHAR(PERFORM_DDT) AS PERFORMDATE,
	DDT.TOCHAR(CHART_DDT) AS CHARTDATE
FROM      PAT_RESULTS,  PATIENT
WHERE    PATIENT.DEPT_ID IN ('N3G','N4G','S5E','S1B','S3B','S4E','N5G','N6G','C3A','C3B','C2A','C2B','S3E','S2E','S5D','S4B','S3D','S4D') 
AND  PAT_RESULTS.PAT_SEQ = PATIENT.PAT_SEQ 
AND     DDT.TODATE(PERFORM_DDT) >= TO_DATE('23-AUG-10 07:00','DD-MON-YY HH24:MI') 
AND	DDT.TODATE(PERFORM_DDT) <= TO_DATE('28-AUG-10 07:00','DD-MON-YY HH24:MI') 
AND (PAT_RESULTS.LABEL_SEQ IN 
(5793,5794,5795,5796,5797,5798,5799,5800,5804,5805,
5806,5836,5837,5845,5846,5847,6355,6426,6429,6430,6431,6880,6913,
6914,6915,6918,6922,6923,6925,6926,6928,6931,6933,6934,
6937,6938,6940,6947,6953,6956,6957,6958,6959,6971,
6975,6978,6979,6982,6987,6989,7048,7049,7050,9757,
10041,10084,11240,11252,11311,11945,11946,12113,12114,12115,
12116,12117,12118,12119,12120,12121,12122,12557,12558,13219,
13220,13221,13222,14590,18816,22832,23829,23834,23835,23836,
23837,23838,23840,23841,23842,23843,23844,23845,23846,23847,
23848,23849,25638,25639,25640,26297,26323,26327,26328,
41406,41407,46936,46937,47057,47058,47059,47060,47061,47062,
47063,47064,47065,47066,47071,47072,47073,47074,47079,47080,
47081,47082,47087,47088,47089,47090,47095,47096,47131,47132,
47133,47134,47135,47136,47137,47138,47180,66043,66082,67119,
67120,67121,67122,67127,67128,67129,67130,67131,67132,67133,
67134,67135,69970,70060,71622,71623,71837,71844,71856,71863,
73525,73527,73528,73529,76759,77177,77939,77953,78056,78072,
78117,78118,78119,78120,78121,78122,78123,78124,78125,78126,
78127,78128,78129,78130,78131,78132,78133,78134,78135,80112,
83766,83767,83768,83769,83770,83771,83772,83773,83774,83775,
83776,83777,83778,83779,83780,83781,83782,83783,83784,83785,
83786,84000,84001,84002,84003,84004,84005,84006,84007,84008,
84009,84010,84011,84012,124256,128187,128506,128593,128611,129617,129637,129645,
129648,129816,131033,131140,131141,131142,131143,131144,131190,
131191,131192,131193,131194,131292,131307,131314,131317,131330,131342,
131360,131431,131525,131526,131528,131573,131579,131580,131614,131617,
131622,131648,131649,131650,131668,131669,131696,131703,131722,131791,131809,
131810,131811,131812,131823,131829,131838,131839,131858,131869,131877,
131878,131914,131915,131917,131920,131922,131923,131924,131925,131926,
131927,131957,131959,131970,131971,132154,132155,132156,132157,132158,
132159,132160,132161,132166,132167,132168,132169,132170,132171,132179,132194,
132255,132257,132263,132264,132269,132275,132276,132277,132282,132288,
132289,132290,132295,132301,132302,132303,132308,132314,132315,132316,
132321,132327,132328,132329,132334,132340,132341,132342,132347,132357,
132358,132359,132364,132409,132449,132463,132464,132473,132474,132487,
132488,132489,132493,132494,132495,132496,132497,132498,132508,132509,
132532,132533,132536,132537,132544,132545,132555,132565,132575,132585,
132591,132650,132651,132653,132678,132679,133262,134335,
134336,134337,134338,134339,134342,134355,134356,134357,134358,134359,
134564,134895,134944,135049,135052,135243,135253,135301,135302,
135303,135304,135305,135306,135307,135308,135332,135333,135334,135335,
135336,135337,135339,135767,135768,135780,135782,135807,136040,136051,
136062,136073,136084,136095,136106,136117,136128,136139,136150,136161,
136336,137062,137063,137064,137067,137068,137069,137070,137071,137072,137073,
137074,137075,137076,137077,137078,137079,137080,137081,137082,137083,
137084,137085,137086,137087,137088,137089,137090,137091,137092,137093,
137094,137095,137096,137097,137098,137099,137100,137101,137158,137169,
137180,137191,137202,137213,137223,137224,137235,137246,137257,137268,
137279,137290,137301,137312,137334,137345,137356,137367,137378,137389,
137400,137411,137422,137433,137444,137446,137455,137466,137477,137488,
137499,137509,137513,137517,137521,137525,137529,137533,137537,137541,
137545,137549,137553,137557,137561,137565,137569,137573,137577,137581,
137585,137589,137593,137597,137601,137605,137609,137613,137617,137621,137625,
137629,137633,137691,137693,138267,138502,138590,138609,138610,138611,
138612,138613,138614,138615,138616,138617,138620,138651,138658,138997,
139022,139047,139072,139097,139122,139130,139141,139152,139163,139174,
139185,139223,139224,139231,139239,139240,139248,139249,139250,139259,
139270,139281,139292,139303,139314,139325,139336,139347,139358,139369,
139380,139391,139402,139413,139424,139435,139457,139468,139479,139490,
139501,139512,139523,139534,139545,139556,139567,139578,139589,139600,
139611,139622,139633,139664,139689,139714,139739,139764,139789,139814,
139839,139864,139889,139914,139939,139964,139989,140014,140039,140043,
140068,140093,140118,140143,140168,140193,140218,140243,140268,140293,
140318,140343,140368,140393,140418,140443,140468,140471,140477,140483,
140489,140495,140501,140507,140513,140519,140525,140531,140543,140545,
140548,140550,140551,140552,140553,140554,140557,140560,140561,140625,
141180,141184,141361,141363,141364,141373,141374,141375,141376,141377,
141378,141379,141380,141383,141384,141385,141470,141535,141785,142638,
142639,142640,142641,142642,142644,144036,144037,145932,146832,149187,157434,163062,
132466,132467,132468,132475,132476,132477,132479,
132480,132482,132483,132484,132485,132486,132490,
132491,132499,132500,132501,132502,132504,132505,
132506,132507,132512,132513,132514,132515,132516,
132517,132518,132519,132526,132534,132535,132540,
132541,132544,132545,132546,132548,139194,139195,
139196,139197,139198,139199,139225,139226,139227,
139228,139229,139230,139232,139233,139234,139235,
139236,139237,139238,139241,139242,139243,139244,
139245,139246,139247,139251,139252,139253,
136508,136529,136665,136688,136711,
136734,136757,136780,136803,136826,
136849,136872,136895,136918,136941,
136964,136987,137010,138980,139005,
139030,139055,139080,139105,139647,
139672,139697,139722,139747,139772,
139797,139822,139847,139872,139897,
139922,139947,139972,139997,140022,
140051,140076,140101,140126,140151,
140176,140201,140226,140251,140276,
140301,140326,140351,140376,140401,
140426,140451,137692,140562,140563,138021,138025,
85162,85163,85165,85166,77934,137707,137752,
153634,153635,153636,153367,153368,153369,154133,
137759,141371,137762,137763,131963,
134454,134455,134456,134457,134458) 
or 
(PAT_RESULTS.LABEL_SEQ between 66083 and 66151)
or 
(PAT_RESULTS.LABEL_SEQ between 134517 and 134570)
or 
(PAT_RESULTS.LABEL_SEQ between 133530 and 133584) 
or 
(PAT_RESULTS.LABEL_SEQ between 134435 and 134443) 
or 
(PAT_RESULTS.LABEL_SEQ in (132441,154140,63768,170176,170177,170178,170179,170180,131815,169341))
or 
(PAT_RESULTS.LABEL_SEQ in (62632,62633,135384,135385,135386,135387,5835,5844,47147,47148,47149,47150,47151,47152,47153,47154,
71859,71840,135350,135354,63161,63162,63201,63202,63157,63158,63159,63160,63197,63198,63199,63200,
131609,3424,139202,4301,20708,3383,20803,19159,19250,47162,47161,47158,47157,47160,47159, 
71862,71843,47156,47155,25644,131656,131657,131658,131619,6432,6433,131620,6428)) 
or 
(PAT_RESULTS.LABEL_SEQ in (76747, 76750, 76753, 76748, 76751, 76754, 76746, 76749, 76752, 129617, 3566, 8340, 19787, 3273, 130516, 129992, 130365, 144235, 150333, 3372, 19529))) 
ORDER BY PATIENT.PATIENT_ID,PAT_RESULTS.LABEL_SEQ