  ICU   20061222 510000635  FINNIGAN  MR       209   1    200612220327  NNYNNNNNNNNYNNYNNYNNYNNNNNNNYNNN
  ICU   20061222 510000630  HORN      MR       209   1    200612220327  NNYNYNNNNNNYNNYNYNNYNNNNNYNNNNNN
  ICU   20061222 510000631  ROY       MR       209   1    200612220327  YNNNNNNNNNYNNYNNYNNYNNNYNNYNNNNN
  ICU   20061222 510000626  SMALL     MRS      209   1    200612220327  NNYNNYYNNNNNYNNYNNYNNYYNNNYNNNNN
  MS    20061222 510000629  CHARLES   MR       209   1    200612220327  NYNNNYNNNNNNNNNNNNNYNNNNNNNNNYNN
  MS    20061222 510000634  FRED      MR       209   1    200612220327  NNYNNNNNNYNYNYNNYNNYNNYNYNNYNNNN
  MS    20061222 510000632  JIM       MR       209   1    200612220327  NYNNNNNNNNYNNYNNYNNYNNNNNNNNYNNN
  MS    20061222 510000625  LYLE      MR       209   1    200612220327  NNYNNYNNNNYNNYNNNYNYNNNYNNNNYNNN
  MS    20061222 510000633  SARAH     MS       209   1    200612220327  YNNNNNNNNNNYNNNNYNNYNNNNNNYNNNNN
  MS    20061222 510000624  PIE       PUMPKIN  209   2    200612220327  YNNNNNNNNNNNNNNNNNNNNNNNNNNNNNNN
  MS    20061222 510000628  SPRING    MRS      209   2    200612220327  NYNNNNYYNNYNNYNNYNNYNNYNNNNNNNNN
  MS    20061222 510000627  WILBUR    MR       209   2    200612220327  NYNNNNYNYNYNNYNNYNNYNNNNNNNNNNNN
