;Extended class import - rename to transparent.txt for import test
;
; The -transparent command-line argument should be used to enable multiple classifications per day.
; The classifications and procedures should be deleted between some tests, but leave them other times.
; You might need to set your patient selection display date to 5/15/08.
;
; All imports quietly overwrite existing data so batches can be re-run and so transparent import can run
; more than one time per shift and overwrite the previous set.  The only drawback is that if you want
; a class IN time, you must put it in the IN column - it will not default to the class date/time.
;
;facility                                                   class                                                                                                                                          event             classified by                meth R
;code   |unit name       |unit code       |unit area code  |date    |acct#               |patient last name (or full name)|first name                      |middle name                     |room    |bed |date/time   |login name      |employee ID     | id |T|stg |      filler (comments)   |VT|SV|In          |Contact/hold|opt1/recover|opt2/hold   |Out         |Pt Type |Acuity  |indicators
;-------------------------------------------------------------------------------------------------------------------------------------------------------------------------------------------------------------------------------------------------------------------------------------------------------------------------------------------------------------------------------------------------------------------------------------------
; legacy - class date only
        |Surg            |                |                |20080515|20080515-1          |LEGACY CLASS IMPORT             |                                |                                |515     |A   |            |                |                |    | |    |24hr class; minimal info  |  |  |            |            |            |            |            |        |        |YNNYNNNNNNNNNNNNNNNNNNNNNNNNNNNNNNNNNNNNNNNNNNNNN
; reclassify test
        |Surg            |                |                |        |20080515-2          |RECLASSIFIED                    |                                |(first)                         |515     |B   |200805150930|                                      |C|    |1st class                 |  |  |            |            |            |            |            |        |        |YNNNYNNNNNNNNNY
        |Surg            |                |                |        |20080515-2          |                                |                                |(second)                        |515     |B   |200805151130|                                      |c|    |2nd class same day        |  |  |200805151130|            |            |            |            |        |        |NYNNNYNNNNNNNNNY
; all Inpatient records test: class, proc, DNC, class, outcomes class
        |Surg            |                |                |        |20080515-3          |CLASS                           |                                |                                |515     |C   |200805150900|                                      |C|    |                          |  |  |            |            |            |            |            |        |        |nynnnnnny
        |Surg            |                |                |        |20080515-3          |CLASS                           |PROC                            |                                |515     |C   |200805151000|                                      |p|    |IP procedure - multiple X |  |  |            |            |            |            |200805151030|        |        |nynyy
        |Surg            |                |                |        |20080515-3          |CLASS                           |                                |DNC                             |515     |C   |200805151300|                                      |D|    |Do not classify           |  |  |200805151300|            |            |            |            |        |        |nnny
        |Surg            |                |                |        |20080515-3          |CLASS                           |                                |                                |515     |C   |200805151400|                                      |c|    |2nd class                 |  |  |200805151400|            |            |            |            |        |        |nynnnnnnynnny
        |Surg            |                |                |        |20080515-3          |CLASS                           |                                |                                |515     |C   |200805151500|                                      |O|    |Outcomes class            |  |  |            |            |            |            |            |        |        |nny
; shift-based - IN times given; each shift classified twice, overwriting first one; username provided
        |Surg            |                |                |        |20080515-4          |SHIFT                           |BASED                           |                                |515     |D   |200805150900|                                      | |    |day - effective 0700      |  |  |200805150700|            |            |            |            |        |        |nynnnnnnnnnnnny
        |Surg            |                |                |        |20080515-4          |SHIFT                           |BASED                           |                                |515     |D   |200805151300|sysadmin                              | |    |day - effective 0700      |  |  |200805150700|            |            |            |            |        |        |nynnnnnnnnnnnnny
        |Surg            |                |                |        |20080515-4          |SHIFT                           |BASED                           |                                |515     |D   |200805151600|                                      | |    |eve - effective 1500      |  |  |200805151500|            |            |            |            |        |        |nynnnnnnnnnnnnnny
        |Surg            |                |                |        |20080515-4          |SHIFT                           |BASED                           |                                |515     |D   |200805152100|sysadmin                              | |    |eve - effective 1500      |  |  |200805151500|            |            |            |            |        |        |nynnnnnnnnnnnnnnny
        |Surg            |                |                |        |20080515-4          |SHIFT                           |BASED                           |                                |515     |D   |200805160000|                                      | |    |ngt - effective 2300      |  |  |200805152300|            |            |            |            |        |        |nynnnnnnnnnnnnnnnny
        |Surg            |                |                |        |20080515-4          |SHIFT                           |BASED                           |                                |515     |D   |200805160600|sysadmin                              | |    |ngt - effective 2300      |  |  |200805152300|            |            |            |            |        |        |nynnnnnnnnnnnnnnnnny

; perinatal classification by stage; no indicators required
        |DELV            |                |                |        |20080515-10         |MOM                             |                                |                                |515     |G   |200805150900|                                      |C|Ant |mom                       |  |  |200805150900|            |            |            |            |        |        |
        |DELV            |                |                |        |20080515-10         |MOM                             |                                |                                |515     |G   |200805150930|                                      |C|El  |mom                       |  |  |200805150930|            |            |            |            |        |        |
        |DELV            |                |                |        |20080515-10         |MOM                             |                                |                                |515     |G   |200805151000|                                      |C|Al  |mom                       |  |  |200805151000|            |            |            |            |        |        |
        |DELV            |                |                |        |20080515-10         |MOM                             |                                |                                |515     |G   |200805151030|                                      |C|Tran|mom                       |  |  |200805151030|            |            |            |            |        |        |
        |DELV            |                |                |        |20080515-10         |MOM                             |                                |                                |515     |G   |200805151100|                                      |C|Del |mom                       |  |  |200805151100|            |            |            |            |        |        |
        |DELV            |                |                |        |20080515-10         |MOM                             |                                |                                |515     |G   |200805151130|                                      |C|Rec |mom                       |  |  |200805151130|            |            |            |            |        |        |
        |DELV            |                |                |        |20080515-10         |MOM                             |                                |                                |515     |G   |200805151200|                                      |C|PP  |mom                       |  |  |200805151200|            |            |            |            |        |        |
        |DELV            |                |                |        |20080515-10         |MOM                             |                                |                                |515     |G   |200805151300|                                      |C|PP  |mom                       |  |  |200805151300|            |            |            |            |        |        |
        |DELV            |                |                |        |20080515-10A        |BABY                            |                                |                                |515     |G   |200805151130|                                      |C|IC  |baby                      |  |  |200805151130|            |            |            |            |        |        |
        |DELV            |                |                |        |20080515-10A        |BABY                            |                                |                                |515     |G   |200805151230|                                      |C|TC  |baby                      |  |  |200805151230|            |            |            |            |        |        |
        |DELV            |                |                |        |20080515-10A        |BABY                            |                                |                                |515     |G   |200805151300|                                      |C|NBN |baby                      |  |  |200805151300|            |            |            |            |        |        |
; perinatal procedures
        |DELV            |                |                |        |20080515-11         |OP NON-SURGICAL PROC            |                                |                                |515     |H   |200805150900|                                      |P|OP  |non-surgical              |  |  |            |            |            |            |200805150930|        |        |y
        |DELV            |                |                |        |20080515-11         |                                |                                |                                |515     |H   |200805151000|                                      |P|OP  |non-surgical w/holding    |  |  |            |            |            |200805151030|200805151100|        |        |ny
        |DELV            |                |                |        |20080515-12         |OP SURGICAL PROC                |                                |                                |515     |I   |200805151000|                                      |s|OP  |surgical w/recovery+hold  |  |  |            |            |200805151000|200805151030|200805151100|        |        |ny

; ED classifications - triage, visit, inpatient
        |ECC - Triage    |                |                |        |20080515-20         |ED 1                            |                                |                                |        |    |200805150930|                                      |C|    |triage - use admit IN     |  |  |            |            |            |            |            |        |        |nny
        |ECC - Visit     |                |                |        |20080515-20         |ED                              |                                |                                |        |    |200805151000|                                      |C|    |visit - reclass @IN       |  |  |200805151000|            |            |            |            |        |        |YYNNNNNY
        |ECC - Inpatient |                |                |        |20080515-20         |ED                              |                                |                                |        |    |200805151600|                                      |C|    |inpatient - must give IN  |  |  |200805151600|            |            |            |            |        |        |YNNNNNNNNNY
; ED - typical visit only
        |ECC - Visit     |                |                |        |20080515-21         |ED 2                            |                                |                                |        |    |200805152200|                                      |C|    |visit - in&out default    |  |  |            |            |            |            |            |        |        |NYNNNY
