﻿OTHER_WORKLOAD_ID UNIT_ID     UNIT_AREA_CODE   SHIFT_DEFINITION_ID WORKLOAD_TYPE START_DATETIME          FINISH_DATETIME         METHODOLOGY_ID METHODOLOGY_WORKLOAD THPWI         REC_HOURS_PER_HOUR CREATED_BY_ID CREATED_DATETIME        CORRECTED_BY_ID CORRECTED_DATETIME      LOS_HOURS     COUNT1        COUNT2        COUNT3        COUNT4        COUNT5        COUNT6        COUNT7        COUNT8        TOTAL_WORKLOAD_HOURS ASSESSMENT_HOURS INTERVENTION_HOURS CONSULTATION_HOURS REPORT_DATE             TIMESTAMP               COUNT9        COUNT10       COUNT11       COUNT12       COUNT13       COUNT14       COUNT15       COUNT16       COUNT17       COUNT18       COUNT19       COUNT20       TOTAL_VOLUME  UNIT_PARAM_ID
----------------- ----------- ---------------- ------------------- ------------- ----------------------- ----------------------- -------------- -------------------- ------------- ------------------ ------------- ----------------------- --------------- ----------------------- ------------- ------------- ------------- ------------- ------------- ------------- ------------- ------------- ------------- -------------------- ---------------- ------------------ ------------------ ----------------------- ----------------------- ------------- ------------- ------------- ------------- ------------- ------------- ------------- ------------- ------------- ------------- ------------- ------------- ------------- -------------
7283313           7128861     NULL             7279399             2             2019-05-22 07:00:00.000 2019-05-22 19:00:00.000 20             0.55                 5             0.2291667          7130311       2019-05-22 11:00:54.000 7130311         2019-05-22 11:01:24.000 12            NULL          1             3             1             NULL          NULL          NULL          NULL          2.75                 0                1                  0                  2019-05-22 00:00:00.000 2019-05-22 11:01:24.000 NULL          NULL          NULL          NULL          NULL          NULL          NULL          NULL          NULL          NULL          NULL          NULL          5             7279375
7283316           1           NULL             7273423             2             2019-05-22 05:00:00.000 2019-05-22 17:00:00.000 20             0.4                  5             0.1666667          7130311       2019-05-22 11:04:40.000 1               2019-05-22 15:33:15.000 12            1             1             NULL          NULL          NULL          NULL          NULL          NULL          2                    0                0                  0                  2019-05-22 00:00:00.000 2019-05-22 15:33:15.000 NULL          NULL          NULL          NULL          NULL          NULL          NULL          NULL          NULL          NULL          NULL          NULL          2             7273417
7283335           155         NULL             7281331             2             2019-05-22 07:00:00.000 2019-05-22 19:00:00.000 20             0.3                  5             0.125              7130311       2019-05-22 15:14:02.000 7130311         2019-05-22 15:14:59.000 12            1             NULL          1             NULL          NULL          NULL          NULL          NULL          1.5                  0.65             0.2                0.17               2019-05-22 00:00:00.000 2019-05-22 15:14:59.000 NULL          NULL          NULL          NULL          NULL          NULL          NULL          NULL          NULL          NULL          NULL          NULL          2             7281325
7283340           7128881     NULL             7272144             2             2019-05-22 07:00:00.000 2019-05-22 19:00:00.000 20             1.4                  5             0.5833333          7130311       2019-05-22 15:15:54.000 NULL            NULL                    12            3             4             NULL          NULL          NULL          NULL          NULL          NULL          7                    1.4              1.4                0.84               2019-05-22 00:00:00.000 2019-05-22 15:15:54.000 NULL          NULL          NULL          NULL          NULL          NULL          NULL          NULL          NULL          NULL          NULL          NULL          7             7272130
7283342           1           NULL             7273423             2             2019-05-22 05:00:00.000 2019-05-22 17:00:00.000 20             0.4                  5             0.1666667          1             2019-05-22 15:33:15.000 NULL            NULL                    12            2             NULL          NULL          NULL          NULL          NULL          NULL          NULL          2                    0                0                  0                  2019-05-22 00:00:00.000 2019-05-22 15:33:15.000 NULL          NULL          NULL          NULL          NULL          NULL          NULL          NULL          NULL          NULL          NULL          NULL          2             7273417

(5 row(s) affected)

